12.1 Feedforward Neural Network | Practitioner’s Guide to Data Science
…
Here is the original 28x28 matrix for the above image:

dplyr::tibble(input_matrix)

## # A tibble: 28 × 1
##   input_matrix[,1]  [,2]  [,3]  [,4]  [,5]  [,6]  [,7]  [,8]  [,9] [,10] [,11]
##              <int> <int> <int> <int> <int> <int> <int> <int> <int> <int> <int>
## 1                0     0     0     0     0     0     0     0     0     0     0
## 2                0     0     0     0     0     0     0     0     0     0     0
## 3                0     0     0     0     0     0     0     0     0     0     0
## 4                0     0     0     0     0     0     0     0     0     0     0
## 5                0     0     0     0     0     0     0     0     0     0     0
## 6                0     0     0     0     0     0     0     0     0     0     9
## # … with 22 more rows, and 1 more variable: input_matrix[12:28] <int>
…
