Chapter 12 Feedforward Neural Network
…
Here is the original 28x28 matrix for the above image:

dplyr::tibble(input_matrix)

## # A tibble: 28 x 1
##   input_matrix[,1]  [,2]  [,3]  [,4]  [,5]  [,6]  [,7]  [,8]  [,9] [,10] [,11]
##              <int> <int> <int> <int> <int> <int> <int> <int> <int> <int> <int>
## 1                0     0     0     0     0     0     0     0     0     0     0
## 2                0     0     0     0     0     0     0     0     0     0     0
## 3                0     0     0     0     0     0     0     0     0     0     0
## 4                0     0     0     0     0     0     0     0     0     0     0
## 5                0     0     0     0     0     0     0     0     0     0     0
## 6                0     0     0     0     0     0     0     0     0     0     9
## #  with 22 more rows, and 17 more variables: [,12] <int>, [,13] <int>,
## #   [,14] <int>, [,15] <int>, [,16] <int>, [,17] <int>, [,18] <int>,
## #   [,19] <int>, [,20] <int>, [,21] <int>, [,22] <int>, [,23] <int>,
## #   [,24] <int>, [,25] <int>, [,26] <int>, [,27] <int>, [,28] <int>
…
